{"componentChunkName":"component---node-modules-gatsby-theme-buzzing-src-gatsby-theme-timeline-templates-posts-query-js","path":"/ja/tags/reddit/page/267","result":{"data":{"site":{"siteMetadata":{"title":"国外股市热门","description":"用中文浏览国外股票社区里的热门讨论","social":[{"name":"Reddit Stocks","url":"https://www.reddit.com/r/stocks","external":true,"prefetch":null},{"name":"Reddit Investing","url":"https://www.reddit.com/r/investing","external":true,"prefetch":null},{"name":"Reddit Bogleheads","url":"https://www.reddit.com/r/Bogleheads/","external":true,"prefetch":null},{"name":"Buzzing","url":"https://www.buzzing.cc/","external":true,"prefetch":null}],"menuLinks":[{"name":"每周精选","url":"/issues","external":null,"prefetch":null}],"localize":[{"locale":"en","title":"Buzzing on Stocks","description":"See popular discussions in foreign stock communities in your native language","social":[{"name":"Reddit","url":"https://www.reddit.com/","external":true,"prefetch":null}],"menuLinks":[{"name":"Weekly Selection","url":"/en/issues","external":null,"prefetch":null}]},{"locale":"zh-Hant","title":"國外股市熱門","description":"用中文瀏覽國外股票社區裡的熱門討論","social":null,"menuLinks":[{"name":"每週精選","url":"/zh-Hant/issues","external":null,"prefetch":null}]},{"locale":"ja","title":"米国株式市場人気の話し合います","description":"人気の米国株式市場の話し合いまを日本語で閲覧","social":null,"menuLinks":[{"name":"每週精選","url":"/ja/issues","external":null,"prefetch":null}]}]}},"tagsGroup":{"group":[{"fieldValue":"Bitcoin","totalCount":4},{"fieldValue":"SaveAMC","totalCount":1},{"fieldValue":"bitcoin","totalCount":3},{"fieldValue":"investing","totalCount":1035},{"fieldValue":"reddit","totalCount":6656},{"fieldValue":"science","totalCount":1},{"fieldValue":"stocks","totalCount":2219},{"fieldValue":"tweet","totalCount":1116},{"fieldValue":"wallstreetbets","totalCount":3402}]},"allBlogPost":{"nodes":[{"__typename":"SocialMediaPost","id":"RedditPost-kbui6l","excerpt":"We have seen about a dozen EV companies this year to go public, but this one is\ndifferent. Most of this companies like Fisker entirely base their valuation on\nprojected revenue estimates and have not a single unit sold and driving out on\nthe streets.\n\nLightning eMotors has delivered more commercial…","slug":"/reddit/r/stocks/comments/kbui6l/new_ev_stock_gik_the_company_that_delivered_more/","title":"New EV stock $GIK - The company that delivered more commercial electric vehicles in the US than Ford and Daimler combined","date":"December 14, 2020","dateISO":"2020-12-14T11:28:18.000Z","datetime":"2020-12-14 11:28","tags":["stocks","reddit"],"image":null,"imageAlt":null,"provider":"Reddit","thirdPartyId":"kbui6l","url":"https://www.reddit.com/r/stocks/comments/kbui6l/new_ev_stock_gik_the_company_that_delivered_more/","originalUrl":"https://www.reddit.com/r/stocks/comments/kbui6l/new_ev_stock_gik_the_company_that_delivered_more/","imageRemote":null,"video":null,"channel":"stocks","channelUrl":"https://www.reddit.com/r/stocks","author":"spacpro","authorUrl":"https://www.reddit.com/user/spacpro","authorImage":null,"authorSlug":"spacpro","score":569,"views":null,"sharedCount":null,"likeCount":null,"sharedContent":null,"parent":{"__typename":"RedditJson","localize":[{"title":"新电动汽车股票$GIK-在美国交付的商用电动汽车比福特和戴姆勒加起来还多","the_new_excerpt":"我们今年已经看到大约12家电动汽车公司上市，但这一家是\n不一样的。像Fisker这样的大多数公司的估值完全基于\n预计收入估计，并且没有一个单位售出和驱赶出去\n街道上。\n\nLightning eMotors提供了更多商业…","locale":"zh"},{"title":"新電動汽車股票$GIK-在美國交付的商用電動汽車比福特和戴姆勒加起來還多","the_new_excerpt":"我們今年已經看到大約12家電動汽車公司上市，但這一家是\n不一樣的。像Fisker這樣的大多數公司的估值完全基於\n預計收入估計，並且沒有一個單位售出和驅趕出去\n街道上。\n\nLightning eMotors提供了更多商業…","locale":"zh-Hant"}]}},{"__typename":"SocialMediaPost","id":"RedditPost-kc5sq5","excerpt":"Subject: S/X Holiday Shutdown\n\nHi Team,\n\nThe SX lines will be shut down for the holidays starting Dec. 24th and returning\nJan. 11th.\n\nWe would like you to take the opportunity to refresh or spend time with your\nfamily, so Tesla will be giving you a full week pay for the week of Jan. 4th.\nThere will…","slug":"/reddit/r/stocks/comments/kc5sq5/tesla_tells_employees_model_s_and_x_production/","title":"Tesla tells employees Model S and X production will shut down for 18 days","date":"December 14, 2020","dateISO":"2020-12-14T11:28:18.000Z","datetime":"2020-12-14 11:28","tags":["stocks","reddit"],"image":null,"imageAlt":null,"provider":"Reddit","thirdPartyId":"kc5sq5","url":"https://www.reddit.com/r/stocks/comments/kc5sq5/tesla_tells_employees_model_s_and_x_production/","originalUrl":"https://www.reddit.com/r/stocks/comments/kc5sq5/tesla_tells_employees_model_s_and_x_production/","imageRemote":null,"video":null,"channel":"stocks","channelUrl":"https://www.reddit.com/r/stocks","author":"Sf766","authorUrl":"https://www.reddit.com/user/Sf766","authorImage":null,"authorSlug":"Sf766","score":1805,"views":null,"sharedCount":null,"likeCount":null,"sharedContent":null,"parent":{"__typename":"RedditJson","localize":[{"title":"特斯拉告诉员工，Model S和X的生产将停产18天","the_new_excerpt":"主题：S/X假日关闭\n\n嗨，队员们，\n\nSX线路将在12月24日开始和返回的假期期间关闭\n1月11日。\n\n我们希望您借此机会更新或花时间与您的\n所以特斯拉将在1月4日的那一周给你整整一周的工资。\n会有…的","locale":"zh"},{"title":"特斯拉告訴員工，Model S和X的生產將停產18天","the_new_excerpt":"主題：S/X假日關閉\n\n嗨，隊員們，\n\nSX線路將在12月24日開始和返回的假期期間關閉\n1月11日。\n\n我們希望您藉此機會更新或花時間與您的\n所以特斯拉將在1月4日的那一週給你整整一週的工資。\n會有…的","locale":"zh-Hant"}]}},{"__typename":"SocialMediaPost","id":"RedditPost-kcekg0","excerpt":"Great news for whoever's long on the psilocybin and psychedelics boom.\n\nhttps://www.cbc.ca/news/canada/london/some-doctors-therapists-get-health-canada-permission-to-use-magic-mushrooms-1.5834485\n\nMMED to the moon baby","slug":"/reddit/r/stocks/comments/kcekg0/health_canada_gives_permission_to_some_doctors/","title":"Health Canada gives permission to some doctors, therapists to use magic mushrooms","date":"December 14, 2020","dateISO":"2020-12-14T11:28:18.000Z","datetime":"2020-12-14 11:28","tags":["stocks","reddit"],"image":null,"imageAlt":null,"provider":"Reddit","thirdPartyId":"kcekg0","url":"https://www.reddit.com/r/stocks/comments/kcekg0/health_canada_gives_permission_to_some_doctors/","originalUrl":"https://www.reddit.com/r/stocks/comments/kcekg0/health_canada_gives_permission_to_some_doctors/","imageRemote":null,"video":null,"channel":"stocks","channelUrl":"https://www.reddit.com/r/stocks","author":"jyeatbvg","authorUrl":"https://www.reddit.com/user/jyeatbvg","authorImage":null,"authorSlug":"jyeatbvg","score":1815,"views":null,"sharedCount":null,"likeCount":null,"sharedContent":null,"parent":{"__typename":"RedditJson","localize":[{"title":"加拿大卫生部允许一些医生和治疗师使用神奇蘑菇","the_new_excerpt":"对热衷于裸盖菇素和迷幻剂的人来说这是个好消息。\n\nhttps://www.cbc.ca/news/canada/london/some-doctors-therapists-get-health-canada-permission-to-use-magic-mushrooms-1.5834485\n\nMMED登月宝贝","locale":"zh"},{"title":"加拿大衛生部允許一些醫生和治療師使用神奇蘑菇","the_new_excerpt":"對熱衷於裸蓋菇素和迷幻劑的人來說這是個好消息。\n\nhttps://www.cbc.ca/news/canada/london/some-doctors-therapists-get-health-canada-permission-to-use-magic-mushrooms-1.5834485\n\nMMED登月寶貝","locale":"zh-Hant"}]}},{"__typename":"SocialMediaPost","id":"RedditPost-k8j66f","excerpt":"Palantir won a 3 year, $44M contract to help the FDA.\n\nThis is great news for the company since it reaffirms their software\ncapabilities in the healthcare sector. They currently work with Merck KGaA and I\nsuspect more healthcare companies will become customers with Palantir over the\nnext year or…","slug":"/reddit/r/stocks/comments/k8j66f/pltr_wins_fda_contract/","title":"$PLTR wins FDA Contract","date":"December 14, 2020","dateISO":"2020-12-14T11:28:17.000Z","datetime":"2020-12-14 11:28","tags":["stocks","reddit"],"image":null,"imageAlt":null,"provider":"Reddit","thirdPartyId":"k8j66f","url":"https://www.reddit.com/r/stocks/comments/k8j66f/pltr_wins_fda_contract/","originalUrl":"https://www.reddit.com/r/stocks/comments/k8j66f/pltr_wins_fda_contract/","imageRemote":null,"video":null,"channel":"stocks","channelUrl":"https://www.reddit.com/r/stocks","author":"infinity884422","authorUrl":"https://www.reddit.com/user/infinity884422","authorImage":null,"authorSlug":"infinity884422","score":1782,"views":null,"sharedCount":null,"likeCount":null,"sharedContent":null,"parent":{"__typename":"RedditJson","localize":[{"title":"$PLTR赢得FDA合同","the_new_excerpt":"Palantir赢得了一份为期3年、价值4400万美元的合同，帮助FDA。\n\n这对公司来说是个好消息，因为它重申了他们的软件\n医疗保健部门的能力。他们目前与默克KGaA和我合作\n怀疑会有更多的医疗保健公司成为Palantir的客户\n明年或…","locale":"zh"},{"title":"$PLTR贏得FDA合同","the_new_excerpt":"Palantir贏得了一份爲期3年、價值4400萬美元的合同，幫助FDA。\n\n這對公司來說是個好消息，因爲它重申了他們的軟件\n醫療保健部門的能力。他們目前與默克KGaA和我合作\n懷疑會有更多的醫療保健公司成爲Palantir的客戶\n明年或…","locale":"zh-Hant"}]}},{"__typename":"SocialMediaPost","id":"RedditPost-k9sfem","excerpt":"https://www.thestreet.com/investing/tesla-trading-at-650-gets-90-price-target-from-jp-morgan\n\n\n\n> JPMorgan analyst Ryan Brinkman has told clients not to increase their holdings\n> in Tesla to approximate its weight in the S&P 500 ahead of its inclusion to\n> the benchmark on December 21.","slug":"/reddit/r/stocks/comments/k9sfem/tesla_trading_at_650_gets_90_price_target_from/","title":"Tesla, Trading at $650, Gets $90 Price Target From JPMorgan","date":"December 14, 2020","dateISO":"2020-12-14T11:28:17.000Z","datetime":"2020-12-14 11:28","tags":["stocks","reddit"],"image":null,"imageAlt":null,"provider":"Reddit","thirdPartyId":"k9sfem","url":"https://www.reddit.com/r/stocks/comments/k9sfem/tesla_trading_at_650_gets_90_price_target_from/","originalUrl":"https://www.reddit.com/r/stocks/comments/k9sfem/tesla_trading_at_650_gets_90_price_target_from/","imageRemote":null,"video":null,"channel":"stocks","channelUrl":"https://www.reddit.com/r/stocks","author":"thatshopifyguy","authorUrl":"https://www.reddit.com/user/thatshopifyguy","authorImage":null,"authorSlug":"thatshopifyguy","score":2280,"views":null,"sharedCount":null,"likeCount":null,"sharedContent":null,"parent":{"__typename":"RedditJson","localize":[{"title":"特斯拉，交易价格650美元，从摩根大通获得90美元的目标价","the_new_excerpt":"https://www.thestreet.com/investing/tesla-trading-at-650-gets-90-price-target-from-jp-morgan\n\n\n\n>摩根大通分析师Ryan Brinkman告诉客户不要增持\n>在特斯拉，以接近其在标准普尔500指数中的权重，然后将其纳入\n>12月21日的基准。","locale":"zh"},{"title":"特斯拉，交易價格650美元，從摩根大通獲得90美元的目標價","the_new_excerpt":"https://www.thestreet.com/investing/tesla-trading-at-650-gets-90-price-target-from-jp-morgan\n\n\n\n>摩根大通分析師Ryan Brinkman告訴客戶不要增持\n>在特斯拉，以接近其在標準普爾500指數中的權重，然後將其納入\n>12月21日的基準。","locale":"zh-Hant"}]}},{"__typename":"SocialMediaPost","id":"RedditPost-kagdre","excerpt":"You're a complete and utter fool. Let's take a look at the issues:\n\n1) No moat at all. Sure they have 50% market share but there are competitors.\nThey're a delivery service - anyone can do what they do. Not only does this pose\na risk to market share, but it poses a huge risk to the already thin…","slug":"/reddit/r/stocks/comments/kagdre/if_you_bought_doordash_at_180/","title":"If you bought DoorDash at $180...","date":"December 14, 2020","dateISO":"2020-12-14T11:28:17.000Z","datetime":"2020-12-14 11:28","tags":["stocks","reddit"],"image":null,"imageAlt":null,"provider":"Reddit","thirdPartyId":"kagdre","url":"https://www.reddit.com/r/stocks/comments/kagdre/if_you_bought_doordash_at_180/","originalUrl":"https://www.reddit.com/r/stocks/comments/kagdre/if_you_bought_doordash_at_180/","imageRemote":null,"video":null,"channel":"stocks","channelUrl":"https://www.reddit.com/r/stocks","author":"SirGasleak","authorUrl":"https://www.reddit.com/user/SirGasleak","authorImage":null,"authorSlug":"SirGasleak","score":4034,"views":null,"sharedCount":null,"likeCount":null,"sharedContent":null,"parent":{"__typename":"RedditJson","localize":[{"title":"如果你花180美元买了DoorDash.","the_new_excerpt":"你是个彻头彻尾的傻瓜。让我们来看看这些问题：\n\n1)没有护城河。当然，他们有50%的市场份额，但也有竞争对手。\n他们是送货服务-任何人都可以做他们做的事情。这个姿势不仅是\n这是对市场份额的风险，但对已经很薄的…构成了巨大的风险","locale":"zh"},{"title":"如果你花180美元買了DoorDash.","the_new_excerpt":"你是個徹頭徹尾的傻瓜。讓我們來看看這些問題：\n\n1)沒有護城河。當然，他們有50%的市場份額，但也有競爭對手。\n他們是送貨服務-任何人都可以做他們做的事情。這個姿勢不僅是\n這是對市場份額的風險，但對已經很薄的…構成了巨大的風險","locale":"zh-Hant"}]}}]}},"pageContext":{"basePath":"/","pageType":"tag","tag":"reddit","tagsFilter":{"id":{"glob":"!*Post-1"}},"filter":{"id":{"glob":"!*Post-1"},"tags":{"eq":"reddit"}},"limit":25,"skip":6650,"total":6656,"totalPages":267,"currentPage":267,"maxWidth":1024,"maxHeight":512,"locale":"ja","hrefLang":"ja-JA","originalPath":"/tags/reddit/page/267","dateFormat":"YYYY-MM-DD"}},"staticQueryHashes":["1239077767","2506312863","2744905544","3025052997","3493603132","3493603132","3513215887","386998304"]}