{"componentChunkName":"component---node-modules-gatsby-theme-buzzing-src-gatsby-theme-timeline-templates-posts-query-js","path":"/en/tags/investing/page/42","result":{"data":{"site":{"siteMetadata":{"title":"国外股市热门","description":"用中文浏览国外股票社区里的热门讨论","social":[{"name":"Reddit Stocks","url":"https://www.reddit.com/r/stocks","external":true,"prefetch":null},{"name":"Reddit Investing","url":"https://www.reddit.com/r/investing","external":true,"prefetch":null},{"name":"Reddit Bogleheads","url":"https://www.reddit.com/r/Bogleheads/","external":true,"prefetch":null},{"name":"Buzzing","url":"https://www.buzzing.cc/","external":true,"prefetch":null}],"menuLinks":[{"name":"每周精选","url":"/issues","external":null,"prefetch":null}],"localize":[{"locale":"en","title":"Buzzing on Stocks","description":"See popular discussions in foreign stock communities in your native language","social":[{"name":"Reddit","url":"https://www.reddit.com/","external":true,"prefetch":null}],"menuLinks":[{"name":"Weekly Selection","url":"/en/issues","external":null,"prefetch":null}]},{"locale":"zh-Hant","title":"國外股市熱門","description":"用中文瀏覽國外股票社區裡的熱門討論","social":null,"menuLinks":[{"name":"每週精選","url":"/zh-Hant/issues","external":null,"prefetch":null}]},{"locale":"ja","title":"米国株式市場人気の話し合います","description":"人気の米国株式市場の話し合いまを日本語で閲覧","social":null,"menuLinks":[{"name":"每週精選","url":"/ja/issues","external":null,"prefetch":null}]}]}},"tagsGroup":{"group":[{"fieldValue":"Bitcoin","totalCount":4},{"fieldValue":"SaveAMC","totalCount":1},{"fieldValue":"bitcoin","totalCount":3},{"fieldValue":"investing","totalCount":1035},{"fieldValue":"reddit","totalCount":6656},{"fieldValue":"science","totalCount":1},{"fieldValue":"stocks","totalCount":2219},{"fieldValue":"tweet","totalCount":1116},{"fieldValue":"wallstreetbets","totalCount":3402}]},"allBlogPost":{"nodes":[{"__typename":"SocialMediaPost","id":"RedditPost-ke85t9","excerpt":"Massachusetts securities regulators are expected to file a complaint Wednesday\nagainst the wildly popular trading platform operated by Robinhood Financial LLC,\nalleging the company aggressively marketed to inexperienced investors and failed\nto implement controls to protect them.\n\nIn a final draft of…","slug":"/reddit/r/investing/comments/ke85t9/massachusetts_regulators_to_file_complaint/","title":"Massachusetts Regulators to File Complaint Against Robinhood","date":"December 16, 2020","dateISO":"2020-12-16T17:50:32.000Z","datetime":"2020-12-16 17:50","tags":["investing","reddit"],"image":null,"imageAlt":null,"provider":"Reddit","thirdPartyId":"ke85t9","url":"https://www.reddit.com/r/investing/comments/ke85t9/massachusetts_regulators_to_file_complaint/","originalUrl":"https://www.reddit.com/r/investing/comments/ke85t9/massachusetts_regulators_to_file_complaint/","imageRemote":null,"video":null,"channel":"investing","channelUrl":"https://www.reddit.com/r/investing","author":"fredean01","authorUrl":"https://www.reddit.com/user/fredean01","authorImage":null,"authorSlug":"fredean01","score":179,"views":null,"sharedCount":null,"likeCount":null,"sharedContent":null,"parent":{"__typename":"RedditJson","localize":[{"title":"马萨诸塞州监管机构将对罗宾汉提起诉讼","the_new_excerpt":"马萨诸塞州证券监管机构预计将于周三提出申诉。\n面对罗宾汉金融有限责任公司(Robinhood Financial LLC)运营的广受欢迎的交易平台，\n指控该公司积极向缺乏经验的投资者推销，但失败了\n来实施控制措施来保护他们。\n\n在…的最终草案中","locale":"zh"},{"title":"馬薩諸塞州監管機構將對羅賓漢提起訴訟","the_new_excerpt":"馬薩諸塞州證券監管機構預計將於週三提出申訴。\n面對羅賓漢金融有限責任公司(Robinhood Financial LLC)運營的廣受歡迎的交易平臺，\n指控該公司積極向缺乏經驗的投資者推銷，但失敗了\n來實施控制措施來保護他們。\n\n在…的最終草案中","locale":"zh-Hant"}]}},{"__typename":"SocialMediaPost","id":"RedditPost-ke9hmn","excerpt":"British fund manager Ruffer Investment Management has shifted around $675\nmillion of its clients’ fortunes into bitcoin, an investor memo seen by Reuters\nshowed, in one of the largest signals of rising institutional interest in the\ndigital currency this year.\n\nThe firm, which manages 20.3 billion…","slug":"/reddit/r/investing/comments/ke9hmn/british_fund_firm_ruffer_piles_675_million_into/","title":"British fund firm Ruffer piles $675 million into bitcoin in 'defensive move' -memo","date":"December 16, 2020","dateISO":"2020-12-16T17:50:32.000Z","datetime":"2020-12-16 17:50","tags":["investing","reddit"],"image":null,"imageAlt":null,"provider":"Reddit","thirdPartyId":"ke9hmn","url":"https://www.reddit.com/r/investing/comments/ke9hmn/british_fund_firm_ruffer_piles_675_million_into/","originalUrl":"https://www.reddit.com/r/investing/comments/ke9hmn/british_fund_firm_ruffer_piles_675_million_into/","imageRemote":null,"video":null,"channel":"investing","channelUrl":"https://www.reddit.com/r/investing","author":"WarrenMuppet007","authorUrl":"https://www.reddit.com/user/WarrenMuppet007","authorImage":null,"authorSlug":"WarrenMuppet007","score":573,"views":null,"sharedCount":null,"likeCount":null,"sharedContent":null,"parent":{"__typename":"RedditJson","localize":[{"title":"英国基金公司Ruffer将6.75亿美元投入比特币，这是一项“防御性举措”--备忘录","the_new_excerpt":"英国基金管理公司鲁弗投资管理公司(Ruffer Investment Management)在675美元附近转移\n路透社看到的一份投资者备忘录，将其客户的数百万财富投入比特币\n显示出，这是机构对美国股市兴趣上升的最大信号之一\n今年的数字货币。\n\n该公司管理着203亿…","locale":"zh"},{"title":"英國基金公司Ruffer將6.75億美元投入比特幣，這是一項“防禦性舉措”--備忘錄","the_new_excerpt":"英國基金管理公司魯弗投資管理公司(Ruffer Investment Management)在675美元附近轉移\n路透社看到的一份投資者備忘錄，將其客戶的數百萬財富投入比特幣\n顯示出，這是機構對美國股市興趣上升的最大信號之一\n今年的數字貨幣。\n\n該公司管理着203億…","locale":"zh-Hant"}]}},{"__typename":"SocialMediaPost","id":"RedditPost-ke1jj9","excerpt":"To use a specific example, let's say PBW [https://www.etf.com/PBW#fit] vs CTEC\n[https://www.etf.com/CTEC#overview].\n\nPBW (Invesco Wilderhill Clean Energy ETF)\n\n * Geographic breakdown: 82% United States. 10% China. 5% Canada. 2.6% Chile.\n\n * Top 10 holdings: FuelCell, Blink, NIO, Plug Power, Livent,…","slug":"/reddit/r/investing/comments/ke1jj9/global_vs_uscentric_clean_energy_etf_which_would/","title":"Global vs US-centric clean energy ETF. Which would you pick?","date":"December 16, 2020","dateISO":"2020-12-16T16:48:40.000Z","datetime":"2020-12-16 16:48","tags":["investing","reddit"],"image":null,"imageAlt":null,"provider":"Reddit","thirdPartyId":"ke1jj9","url":"https://www.reddit.com/r/investing/comments/ke1jj9/global_vs_uscentric_clean_energy_etf_which_would/","originalUrl":"https://www.reddit.com/r/investing/comments/ke1jj9/global_vs_uscentric_clean_energy_etf_which_would/","imageRemote":null,"video":null,"channel":"investing","channelUrl":"https://www.reddit.com/r/investing","author":"r2002","authorUrl":"https://www.reddit.com/user/r2002","authorImage":null,"authorSlug":"r2002","score":55,"views":null,"sharedCount":null,"likeCount":null,"sharedContent":null,"parent":{"__typename":"RedditJson","localize":[{"title":"全球VS以美国为中心的清洁能源ETF。你会选哪一个？","the_new_excerpt":"举一个具体的例子，让我们假设pbw[https://www.etf.com/PBW#fit]vs ctec\n[https://www.etf.com/CTEC#overview].\n\nPBW(景顺荒山清洁能源ETF)\n\n*地理细分：82%的美国。10%的中国。5%的加拿大。智利为2.6%。\n\n*前10名持股：Fuelcell、Blink、NIO、Plug Power、LIVENT、…","locale":"zh"},{"title":"全球VS以美國爲中心的清潔能源ETF。你會選哪一個？","the_new_excerpt":"舉一個具體的例子，讓我們假設pbw[https://www.etf.com/PBW#fit]vs ctec\n[https://www.etf.com/CTEC#overview].\n\nPBW(景順荒山清潔能源ETF)\n\n*地理細分：82%的美國。10%的中國。5%的加拿大。智利爲2.6%。\n\n*前10名持股：Fuelcell、Blink、NIO、Plug Power、LIVENT、…","locale":"zh-Hant"}]}},{"__typename":"SocialMediaPost","id":"RedditPost-kdsof0","excerpt":"Hi y'all,\n\nLike a lot of you I have been following Cathy Woods and Ark Investments\nrecently. As many of you probably know, Cathy's investment strategy is based on\nWright's law, which states that for every cumulative doubling of units produced,\ncosts decline at a consistent rate. According to Cathy,…","slug":"/reddit/r/investing/comments/kdsof0/ark_discussion/","title":"ARK discussion","date":"December 16, 2020","dateISO":"2020-12-16T06:42:40.000Z","datetime":"2020-12-16 06:42","tags":["investing","reddit"],"image":null,"imageAlt":null,"provider":"Reddit","thirdPartyId":"kdsof0","url":"https://www.reddit.com/r/investing/comments/kdsof0/ark_discussion/","originalUrl":"https://www.reddit.com/r/investing/comments/kdsof0/ark_discussion/","imageRemote":null,"video":null,"channel":"investing","channelUrl":"https://www.reddit.com/r/investing","author":"gravy_train99","authorUrl":"https://www.reddit.com/user/gravy_train99","authorImage":null,"authorSlug":"gravy_train99","score":80,"views":null,"sharedCount":null,"likeCount":null,"sharedContent":null,"parent":{"__typename":"RedditJson","localize":[{"title":"方舟讨论","the_new_excerpt":"大家好，\n\n像你们中的许多人一样，我一直在关注凯西·伍兹和方舟投资公司\n最近。你们中的许多人可能都知道，凯西的投资策略是基于\n赖特定律指出，单位产量每累计翻一番，\n成本以一致的速度下降。据凯西说，…","locale":"zh"},{"title":"方舟討論","the_new_excerpt":"大家好，\n\n像你們中的許多人一樣，我一直在關注凱西·伍茲和方舟投資公司\n最近。你們中的許多人可能都知道，凱西的投資策略是基於\n賴特定律指出，單位產量每累計翻一番，\n成本以一致的速度下降。據凱西說，…","locale":"zh-Hant"}]}},{"__typename":"SocialMediaPost","id":"RedditPost-kdvm6s","excerpt":"https://www.bnnbloomberg.ca/aphria-tilray-said-to-be-in-advanced-merger-talks-1.1536917\n\n“Canadian cannabis producers Aphria Inc. and Tilray Inc. are in advanced talks\nto combine, with an announcement possible as early as this week, according to\nsources familiar with the matter. The merged company…","slug":"/reddit/r/investing/comments/kdvm6s/aphria_and_tilray_are_merging_mj_stocks_ripping/","title":"Aphria and Tilray are merging. MJ stocks ripping after hours.","date":"December 16, 2020","dateISO":"2020-12-16T03:57:34.000Z","datetime":"2020-12-16 03:57","tags":["investing","reddit"],"image":null,"imageAlt":null,"provider":"Reddit","thirdPartyId":"kdvm6s","url":"https://www.reddit.com/r/investing/comments/kdvm6s/aphria_and_tilray_are_merging_mj_stocks_ripping/","originalUrl":"https://www.reddit.com/r/investing/comments/kdvm6s/aphria_and_tilray_are_merging_mj_stocks_ripping/","imageRemote":null,"video":null,"channel":"investing","channelUrl":"https://www.reddit.com/r/investing","author":"XIST-R-2-S","authorUrl":"https://www.reddit.com/user/XIST-R-2-S","authorImage":null,"authorSlug":"XIST-R-2-S","score":247,"views":null,"sharedCount":null,"likeCount":null,"sharedContent":null,"parent":{"__typename":"RedditJson","localize":[{"title":"Aphria和Tilray正在合并。MJ股票在几个小时后撕裂。","the_new_excerpt":"https://www.bnnbloomberg.ca/aphria-tilray-said-to-be-in-advanced-merger-talks-1.1536917\n\n“加拿大大麻生产商Aphria Inc.和Tilray Inc.正在进行深入的谈判\n合并，最早可能在本周宣布，根据\n知情人士说。合并后的公司…","locale":"zh"},{"title":"Aphria和Tilray正在合併。MJ股票在幾個小時後撕裂。","the_new_excerpt":"https://www.bnnbloomberg.ca/aphria-tilray-said-to-be-in-advanced-merger-talks-1.1536917\n\n“加拿大大麻生產商Aphria Inc.和Tilray Inc.正在進行深入的談判\n合併，最早可能在本週宣佈，根據\n知情人士說。合併後的公司…","locale":"zh-Hant"}]}},{"__typename":"SocialMediaPost","id":"RedditPost-kdegdp","excerpt":"I've been thinking about strategies to grow stock positions over time and have\nbeen reading about different strategies.\n\nI'm trying to work out the best way to continually invest in my positions over\ntime to ensure that I'm building my positions over time while limiting the\ndownside.\n\nThe two…","slug":"/reddit/r/investing/comments/kdegdp/buy_the_dip_or_just_buy_strategies_for_building_a/","title":"Buy the dip or just buy - strategies for building a position over time","date":"December 16, 2020","dateISO":"2020-12-16T00:58:49.000Z","datetime":"2020-12-16 00:58","tags":["investing","reddit"],"image":null,"imageAlt":null,"provider":"Reddit","thirdPartyId":"kdegdp","url":"https://www.reddit.com/r/investing/comments/kdegdp/buy_the_dip_or_just_buy_strategies_for_building_a/","originalUrl":"https://www.reddit.com/r/investing/comments/kdegdp/buy_the_dip_or_just_buy_strategies_for_building_a/","imageRemote":null,"video":null,"channel":"investing","channelUrl":"https://www.reddit.com/r/investing","author":"Fightz_","authorUrl":"https://www.reddit.com/user/Fightz_","authorImage":null,"authorSlug":"Fightz_","score":98,"views":null,"sharedCount":null,"likeCount":null,"sharedContent":null,"parent":{"__typename":"RedditJson","localize":[{"title":"逢低买入还是干脆买入--随着时间的推移建立头寸的策略","the_new_excerpt":"我一直在考虑随着时间的推移增加股票头寸的策略，并\n一直在读关于不同策略的文章。\n\n我正在努力找出持续投资于我的头寸的最佳方式。\n时间来确保我随着时间的推移建立我的头寸，同时限制\n不利的一面。\n\n两个…","locale":"zh"},{"title":"逢低買入還是乾脆買入--隨着時間的推移建立頭寸的策略","the_new_excerpt":"我一直在考慮隨着時間的推移增加股票頭寸的策略，並\n一直在讀關於不同策略的文章。\n\n我正在努力找出持續投資於我的頭寸的最佳方式。\n時間來確保我隨着時間的推移建立我的頭寸，同時限制\n不利的一面。\n\n兩個…","locale":"zh-Hant"}]}},{"__typename":"SocialMediaPost","id":"RedditPost-kdm9xg","excerpt":" * SpaceX is talking to investors to raise another round of funding, even though\n   it recently raised a $1.9 billion round in August, according to two people\n   with knowledge of the deal.\n\n * SpaceX is looking to double its $46 billion valuation from that August round,\n   which would bring it $92…","slug":"/reddit/r/investing/comments/kdm9xg/spacex_in_talks_for_new_funds_and_92_billion/","title":"SpaceX in Talks for New Funds and $92 Billion Valuation [Bloomberg]","date":"December 16, 2020","dateISO":"2020-12-16T00:58:49.000Z","datetime":"2020-12-16 00:58","tags":["investing","reddit"],"image":null,"imageAlt":null,"provider":"Reddit","thirdPartyId":"kdm9xg","url":"https://www.reddit.com/r/investing/comments/kdm9xg/spacex_in_talks_for_new_funds_and_92_billion/","originalUrl":"https://www.reddit.com/r/investing/comments/kdm9xg/spacex_in_talks_for_new_funds_and_92_billion/","imageRemote":null,"video":null,"channel":"investing","channelUrl":"https://www.reddit.com/r/investing","author":"1e6throw","authorUrl":"https://www.reddit.com/user/1e6throw","authorImage":null,"authorSlug":"1e6throw","score":1406,"views":null,"sharedCount":null,"likeCount":null,"sharedContent":null,"parent":{"__typename":"RedditJson","localize":[{"title":"SpaceX正在就新基金和920亿美元估值进行谈判[彭博社]","the_new_excerpt":"*SpaceX正在与投资者洽谈，以筹集新一轮融资，尽管\n据两位知情人士透露，该公司最近在8月份进行了一轮19亿美元的融资\n对这笔交易了如指掌。\n\n*SpaceX希望将其460亿美元的估值比8月那轮翻一番，\n这将为它带来92美元的…","locale":"zh"},{"title":"SpaceX正在就新基金和920億美元估值進行談判[彭博社]","the_new_excerpt":"*SpaceX正在與投資者洽談，以籌集新一輪融資，儘管\n據兩位知情人士透露，該公司最近在8月份進行了一輪19億美元的融資\n對這筆交易瞭如指掌。\n\n*SpaceX希望將其460億美元的估值比8月那輪翻一番，\n這將爲它帶來92美元的…","locale":"zh-Hant"}]}},{"__typename":"SocialMediaPost","id":"RedditPost-kdelzs","excerpt":"https://www.cnbc.com/amp/2020/12/14/virgin-galactic-spce-stock-drops-after-aborted-spaceflight-test.html#click=https://t.co/SNDIXibinR\n\n“The successful triggering of the fail safe scenario should ease investors\nconcerns over the risk of a catastrophic event as SPCE enters commercial\nservice”. -…","slug":"/reddit/r/investing/comments/kdelzs/virgin_galactic_had_to_abort_their_recent_test/","title":"Virgin Galactic had to abort their recent test flight. On the positive side their fail safe systems worked flawlessly.","date":"December 15, 2020","dateISO":"2020-12-15T09:43:24.000Z","datetime":"2020-12-15 09:43","tags":["investing","reddit"],"image":null,"imageAlt":null,"provider":"Reddit","thirdPartyId":"kdelzs","url":"https://www.reddit.com/r/investing/comments/kdelzs/virgin_galactic_had_to_abort_their_recent_test/","originalUrl":"https://www.reddit.com/r/investing/comments/kdelzs/virgin_galactic_had_to_abort_their_recent_test/","imageRemote":null,"video":null,"channel":"investing","channelUrl":"https://www.reddit.com/r/investing","author":"BeBetterthen","authorUrl":"https://www.reddit.com/user/BeBetterthen","authorImage":null,"authorSlug":"BeBetterthen","score":886,"views":null,"sharedCount":null,"likeCount":null,"sharedContent":null,"parent":{"__typename":"RedditJson","localize":[{"title":"维珍银河不得不取消最近的试飞。积极的一面是，他们的故障保险系统工作得无懈可击。","the_new_excerpt":"https://www.cnbc.com/amp/2020/12/14/virgin-galactic-spce-stock-drops-after-aborted-spaceflight-test.html#click=https://t.co/SNDIXibinR\n\n“成功触发故障保险情景应该会让投资者松一口气。\n随着SPCE进入商用，对灾难性事件风险的担忧\n服务“。--…","locale":"zh"},{"title":"維珍銀河不得不取消最近的試飛。積極的一面是，他們的故障保險系統工作得無懈可擊。","the_new_excerpt":"https://www.cnbc.com/amp/2020/12/14/virgin-galactic-spce-stock-drops-after-aborted-spaceflight-test.html#click=https://t.co/SNDIXibinR\n\n“成功觸發故障保險情景應該會讓投資者鬆一口氣。\n隨着SPCE進入商用，對災難性事件風險的擔憂\n服務“。--…","locale":"zh-Hant"}]}},{"__typename":"SocialMediaPost","id":"RedditPost-kcyb2f","excerpt":"Industry Overview\n\nDomino’s competes in the quick-service restaurant (QSR) pizza industry with\nvarious competitors. The U.S. market is estimated to be ~$37.8bn and steadily\ngrowing. This is the second-largest category in the broader $279bn QSR market.\nThe QSR pizza industry is primarily comprised of…","slug":"/reddit/r/investing/comments/kcyb2f/dominos_pizza_analysis_nyse_dpz/","title":"Domino's Pizza Analysis (NYSE: DPZ)","date":"December 15, 2020","dateISO":"2020-12-15T07:08:29.000Z","datetime":"2020-12-15 07:08","tags":["investing","reddit"],"image":null,"imageAlt":null,"provider":"Reddit","thirdPartyId":"kcyb2f","url":"https://www.reddit.com/r/investing/comments/kcyb2f/dominos_pizza_analysis_nyse_dpz/","originalUrl":"https://www.reddit.com/r/investing/comments/kcyb2f/dominos_pizza_analysis_nyse_dpz/","imageRemote":null,"video":null,"channel":"investing","channelUrl":"https://www.reddit.com/r/investing","author":"Career_Regular","authorUrl":"https://www.reddit.com/user/Career_Regular","authorImage":null,"authorSlug":"Career_Regular","score":159,"views":null,"sharedCount":null,"likeCount":null,"sharedContent":null,"parent":{"__typename":"RedditJson","localize":[{"title":"Domino‘s Pizza Analysis(纽约证券交易所代码：DPZ)","the_new_excerpt":"行业概述\n\nDomino‘s在快餐店(QSR)披萨行业与\n各种各样的竞争者。据估计，美国市场规模约为378亿美元，而且稳定\n在成长。在规模更大的2790亿美元QSR市场中，这是第二大类别。\nqsr披萨行业主要由…组成。","locale":"zh"},{"title":"Domino‘s Pizza Analysis(紐約證券交易所代碼：DPZ)","the_new_excerpt":"行業概述\n\nDomino‘s在快餐店(QSR)披薩行業與\n各種各樣的競爭者。據估計，美國市場規模約爲378億美元，而且穩定\n在成長。在規模更大的2790億美元QSR市場中，這是第二大類別。\nqsr披薩行業主要由…組成。","locale":"zh-Hant"}]}},{"__typename":"SocialMediaPost","id":"RedditPost-kd1m9c","excerpt":"I'm pretty new to investing, but I would have thought that Moderna and Pfizer\nstocks would get a big boost having just gotten approval to distribute massive\nquantities of arguably the most important vaccine in living memory. And yet, the\nstocks seem to be declining in value. What would explain this?","slug":"/reddit/r/investing/comments/kd1m9c/with_moderna_and_pfizer_vaccines_being/","title":"With Moderna and Pfizer vaccines being distributed and countries competing over supplies, why do their stocks seem to be not doing much?","date":"December 15, 2020","dateISO":"2020-12-15T07:08:29.000Z","datetime":"2020-12-15 07:08","tags":["investing","reddit"],"image":null,"imageAlt":null,"provider":"Reddit","thirdPartyId":"kd1m9c","url":"https://www.reddit.com/r/investing/comments/kd1m9c/with_moderna_and_pfizer_vaccines_being/","originalUrl":"https://www.reddit.com/r/investing/comments/kd1m9c/with_moderna_and_pfizer_vaccines_being/","imageRemote":null,"video":null,"channel":"investing","channelUrl":"https://www.reddit.com/r/investing","author":"DontHateDefenestrate","authorUrl":"https://www.reddit.com/user/DontHateDefenestrate","authorImage":null,"authorSlug":"DontHateDefenestrate","score":1181,"views":null,"sharedCount":null,"likeCount":null,"sharedContent":null,"parent":{"__typename":"RedditJson","localize":[{"title":"随着现代和辉瑞疫苗的分发，以及各国对供应的竞争，为什么他们的股票似乎没有太大作用？","the_new_excerpt":"我对投资还是个新手，但我本以为摩迪纳和辉瑞\n在刚刚获准大量分销后，股票将得到极大的提振\n可以说是人们记忆中最重要的疫苗的数量。然而，\n股票似乎在贬值。怎么解释这件事呢？","locale":"zh"},{"title":"隨着現代和輝瑞疫苗的分發，以及各國對供應的競爭，爲什麼他們的庫存似乎沒有太大作用？","the_new_excerpt":"我對投資還是個新手，但我本以爲摩迪納和輝瑞\n在剛剛獲准大量分銷後，股票將得到極大的提振\n可以說是人們記憶中最重要的疫苗的數量。然而，\n股票似乎在貶值。怎麼解釋這件事呢？","locale":"zh-Hant"}]}}]}},"pageContext":{"basePath":"/","pageType":"tag","tag":"investing","tagsFilter":{"id":{"glob":"!*Post-1"}},"filter":{"id":{"glob":"!*Post-1"},"tags":{"eq":"investing"}},"limit":25,"skip":1025,"total":1035,"totalPages":42,"currentPage":42,"maxWidth":1024,"maxHeight":512,"locale":"en","hrefLang":"en-US","originalPath":"/tags/investing/page/42","dateFormat":"MM/DD/YYYY"}},"staticQueryHashes":["1239077767","2506312863","2744905544","3025052997","3493603132","3493603132","3513215887","386998304"]}